simulation/qsim/MI-CircuitosDigitais-Problema-2.msim.vcd
$comment
	File created using the following command:
		vcd file MI-CircuitosDigitais-Problema-2.msim.vcd -direction
$end
$date
	Mon Oct 02 18:11:48 2023
$end
$version
	ModelSim Version 10.5b
$end
$timescale
	1ps
$end

$scope module modulo_seletor_1_8_at_vlg_vec_tst $end
$var reg 3 ! mdc [2:0] $end
$var reg 3 " mdl [2:0] $end
$var wire 1 # dmx8_sel [6] $end
$var wire 1 $ dmx8_sel [5] $end
$var wire 1 % dmx8_sel [4] $end
$var wire 1 & dmx8_sel [3] $end
$var wire 1 ' dmx8_sel [2] $end
$var wire 1 ( dmx8_sel [1] $end
$var wire 1 ) dmx8_sel [0] $end

$scope module i1 $end
$var wire 1 * gnd $end
$var wire 1 + vcc $end
$var wire 1 , unknown $end
$var tri1 1 - devclrn $end
$var tri1 1 . devpor $end
$var tri1 1 / devoe $end
$var wire 1 0 gate_41|WideOr0~0_combout $end
$var wire 1 1 gate_41|WideOr0~combout $end
$var wire 1 2 gate_38|S~0_combout $end
$var wire 1 3 gate_38|S~1_combout $end
$var wire 1 4 gate_29|S~0_combout $end
$var wire 1 5 gate_29|S~1_combout $end
$var wire 1 6 gate_22|WideOr0~0_combout $end
$var wire 1 7 gate_22|WideOr0~combout $end
$var wire 1 8 gate_19|S~0_combout $end
$var wire 1 9 gate_19|S~1_combout $end
$var wire 1 : gate_10|WideOr0~0_combout $end
$var wire 1 ; gate_10|WideOr0~1_combout $end
$var wire 1 < gate_3|WideOr0~0_combout $end
$var wire 1 = gate_3|WideOr0~1_combout $end
$var wire 1 > mdc~combout [2] $end
$var wire 1 ? mdc~combout [1] $end
$var wire 1 @ mdc~combout [0] $end
$var wire 1 A mdl~combout [2] $end
$var wire 1 B mdl~combout [1] $end
$var wire 1 C mdl~combout [0] $end
$upscope $end
$upscope $end
$enddefinitions $end
#0
$dumpvars
b0 !
b0 "
1)
1(
1'
1&
1%
1$
0#
0*
1+
x,
1-
1.
1/
10
11
02
13
14
15
16
17
08
19
1:
1;
0<
0=
0@
0?
0>
0C
0B
0A
$end
#10000
b1 "
1C
06
#20000
b11 "
b10 "
0C
1B
12
00
#30000
b11 "
1C
18
#40000
b111 "
b101 "
b100 "
0C
0B
1A
02
#50000
b101 "
1C
1<
0:
1=
0;
1#
0$
#60000
b111 "
b110 "
0C
1B
16
04
12
#70000
b111 "
1C
1:
08
14
10
1;
1$
#80000
b1 !
b11 "
b1 "
b0 "
0C
0B
0A
1@
0<
0:
04
0;
0$
#90000
b1 "
1C
06
#100000
b11 "
b10 "
0C
1B
#110000
b11 "
1C
1:
18
1;
09
1$
0%
#120000
b111 "
b101 "
b100 "
0C
0B
1A
14
#130000
b101 "
1C
1<
#140000
b111 "
b110 "
0C
1B
16
#150000
b111 "
1C
08
19
1%
#160000
b11 !
b10 !
b11 "
b1 "
b0 "
0C
0B
0A
0@
1?
0<
02
09
0%
#170000
b1 "
1C
18
06
19
07
1%
0&
#180000
b11 "
b10 "
0C
1B
00
#190000
b11 "
1C
#200000
b111 "
b101 "
b100 "
0C
0B
1A
#210000
b101 "
1C
1<
0:
#220000
b111 "
b110 "
0C
1B
16
04
17
05
1&
0'
#230000
b111 "
1C
1:
14
10
15
1'
#240000
b11 !
b11 "
b1 "
b0 "
0C
0B
0A
1@
0<
0:
08
04
12
05
0'
#250000
b1 "
1C
18
06
#260000
b11 "
b10 "
0C
1B
#270000
b11 "
1C
1:
02
#280000
b111 "
b101 "
b100 "
0C
0B
1A
14
12
15
03
1'
0(
#290000
b101 "
1C
1<
#300000
b111 "
b110 "
0C
1B
16
#310000
b111 "
1C
02
13
1(
#320000
b111 !
b101 !
b100 !
b11 "
b1 "
b0 "
0C
0B
0A
0@
0?
1>
0<
08
03
0(
#330000
b1 "
1C
#340000
b11 "
b10 "
0C
1B
12
00
13
01
1(
0)
#350000
b11 "
1C
18
#360000
b111 "
b101 "
b100 "
0C
0B
1A
02
#370000
b101 "
1C
1<
0:
#380000
b111 "
b110 "
0C
1B
04
12
#390000
b111 "
1C
1:
08
14
10
11
1)
#400000
b101 !
b11 "
b1 "
b0 "
0C
0B
0A
1@
0<
0:
04
#410000
b1 "
1C
#420000
b11 "
b10 "
0C
1B
#430000
b11 "
1C
1:
18
#440000
b111 "
b101 "
b100 "
0C
0B
1A
14
#450000
b101 "
1C
1<
#460000
b111 "
b110 "
0C
1B
#470000
b111 "
1C
08
#480000
b111 !
b110 !
b11 "
b1 "
b0 "
0C
0B
0A
0@
1?
0<
02
#490000
b1 "
1C
18
#500000
b11 "
b10 "
0C
1B
00
#510000
b11 "
1C
#520000
b111 "
b101 "
b100 "
0C
0B
1A
#530000
b101 "
1C
1<
0:
#540000
b111 "
b110 "
0C
1B
04
#550000
b111 "
1C
1:
14
10
#560000
b111 !
b11 "
b1 "
b0 "
0C
0B
0A
1@
0<
0:
08
04
12
#570000
b1 "
1C
18
#580000
b11 "
b10 "
0C
1B
#590000
b11 "
1C
1:
02
#600000
b111 "
b101 "
b100 "
0C
0B
1A
14
12
#610000
b101 "
1C
1<
#620000
b111 "
b110 "
0C
1B
#630000
b111 "
1C
02
#640000
b11 !
b1 !
b0 !
b11 "
b1 "
b0 "
0C
0B
0A
0@
0?
0>
0<
08
0=
0#
#650000
b1 "
1C
06
#660000
b11 "
b10 "
0C
1B
12
00
#670000
b11 "
1C
18
#680000
b111 "
b101 "
b100 "
0C
0B
1A
02
#690000
b101 "
1C
1<
0:
1=
0;
1#
0$
#700000
b111 "
b110 "
0C
1B
16
04
12
#710000
b111 "
1C
1:
08
14
10
1;
1$
#720000
b1 !
b11 "
b1 "
b0 "
0C
0B
0A
1@
0<
0:
04
0;
0$
#730000
b1 "
1C
06
#740000
b11 "
b10 "
0C
1B
#750000
b11 "
1C
1:
18
1;
09
1$
0%
#760000
b111 "
b101 "
b100 "
0C
0B
1A
14
#770000
b101 "
1C
1<
#780000
b111 "
b110 "
0C
1B
16
#790000
b111 "
1C
08
19
1%
#800000
b11 !
b10 !
b11 "
b1 "
b0 "
0C
0B
0A
0@
1?
0<
02
09
0%
#810000
b1 "
1C
18
06
19
07
1%
0&
#820000
b11 "
b10 "
0C
1B
00
#830000
b11 "
1C
#840000
b111 "
b101 "
b100 "
0C
0B
1A
#850000
b101 "
1C
1<
0:
#860000
b111 "
b110 "
0C
1B
16
04
17
05
1&
0'
#870000
b111 "
1C
1:
14
10
15
1'
#880000
b11 !
b11 "
b1 "
b0 "
0C
0B
0A
1@
0<
0:
08
04
12
05
0'
#890000
b1 "
1C
18
06
#900000
b11 "
b10 "
0C
1B
#910000
b11 "
1C
1:
02
#920000
b111 "
b101 "
b100 "
0C
0B
1A
14
12
15
03
1'
0(
#930000
b101 "
1C
1<
#940000
b111 "
b110 "
0C
1B
16
#950000
b111 "
1C
02
13
1(
#960000
b111 !
b101 !
b100 !
b11 "
b1 "
b0 "
0C
0B
0A
0@
0?
1>
0<
08
03
0(
#970000
b1 "
1C
#980000
b11 "
b10 "
0C
1B
12
00
13
01
1(
0)
#990000
b11 "
1C
18
