simulation/qsim/MI-CircuitosDigitais-Problema-2.msim.vcd
$comment
	File created using the following command:
		vcd file MI-CircuitosDigitais-Problema-2.msim.vcd -direction
$end
$date
	Mon Oct 02 22:23:22 2023
$end
$version
	ModelSim Version 10.5b
$end
$timescale
	1ps
$end

$scope module modulo_sel_1_8_demux_vlg_vec_tst $end
$var reg 3 ! mdc [2:0] $end
$var reg 3 " mdl [2:0] $end
$var wire 1 # dmx8_input [2] $end
$var wire 1 $ dmx8_input [1] $end
$var wire 1 % dmx8_input [0] $end

$scope module i1 $end
$var wire 1 & gnd $end
$var wire 1 ' vcc $end
$var wire 1 ( unknown $end
$var tri1 1 ) devclrn $end
$var tri1 1 * devpor $end
$var tri1 1 + devoe $end
$var wire 1 , gate_45|WideOr0~0_combout $end
$var wire 1 - gate_45|WideOr0~1_combout $end
$var wire 1 . gate_45|WideOr0~2_combout $end
$var wire 1 / gate_45|WideOr0~4_combout $end
$var wire 1 0 gate_45|WideOr0~3_combout $end
$var wire 1 1 gate_45|WideOr0~5_combout $end
$var wire 1 2 gate_45|WideOr0~6_combout $end
$var wire 1 3 gate_45|WideOr0~7_combout $end
$var wire 1 4 gate_29|WideOr0~7_combout $end
$var wire 1 5 gate_29|WideOr0~4_combout $end
$var wire 1 6 gate_29|WideOr0~3_combout $end
$var wire 1 7 gate_29|WideOr0~8_combout $end
$var wire 1 8 gate_29|WideOr0~6_combout $end
$var wire 1 9 gate_29|WideOr0~9_combout $end
$var wire 1 : gate_14|WideOr0~0_combout $end
$var wire 1 ; gate_14|WideOr0~1_combout $end
$var wire 1 < gate_14|WideOr0~3_combout $end
$var wire 1 = gate_14|WideOr0~2_combout $end
$var wire 1 > gate_14|WideOr0~4_combout $end
$var wire 1 ? mdl~combout [2] $end
$var wire 1 @ mdl~combout [1] $end
$var wire 1 A mdl~combout [0] $end
$var wire 1 B mdc~combout [2] $end
$var wire 1 C mdc~combout [1] $end
$var wire 1 D mdc~combout [0] $end
$upscope $end
$upscope $end
$enddefinitions $end
#0
$dumpvars
b0 !
b0 "
0%
0$
0#
0&
1'
x(
1)
1*
1+
1,
0-
0.
0/
00
01
02
03
14
05
06
07
18
09
0:
0;
0<
0=
0>
0A
0@
0?
0D
0C
0B
$end
#10000
b1 "
1A
1;
12
1<
13
1%
#20000
b11 "
b10 "
0A
1@
0;
02
1.
08
16
15
04
0<
03
10
1/
17
11
19
0%
1$
#30000
b11 "
1A
1:
01
1-
13
1%
#40000
b111 "
b101 "
b100 "
0A
0@
1?
1;
12
0.
0-
1=
06
05
14
1<
00
0/
1>
07
02
11
09
1#
03
0$
0%
#50000
b101 "
1A
0;
0:
01
0=
0<
0>
0#
#60000
b111 "
b110 "
0A
1@
1;
11
1.
18
15
1<
10
1/
12
01
13
1%
#70000
b111 "
1A
1:
17
11
1-
1=
0<
19
1>
1$
1#
#80000
b1 !
b11 "
b1 "
b0 "
0A
0@
0?
1D
0;
0:
07
02
0/
0.
0-
0=
05
0,
03
01
0>
0%
0#
#90000
b1 "
1A
1;
17
12
11
1<
13
1%
#100000
b11 "
b10 "
0A
1@
0;
07
02
01
1.
08
16
15
04
1=
0<
09
03
1>
0$
0%
1#
#110000
b11 "
1A
1:
17
12
11
1/
0=
13
02
01
0>
03
1%
0#
0%
#120000
b111 "
b101 "
b100 "
0A
0@
1?
1;
07
12
0/
0.
06
05
14
13
11
1%
#130000
b101 "
1A
0;
0:
17
02
01
19
03
1$
0%
#140000
b111 "
b110 "
0A
1@
1;
07
12
11
1.
1=
18
15
0=
1<
13
1>
0>
1%
1#
0#
#150000
b111 "
1A
1:
17
02
01
1/
1=
0<
03
12
11
1>
13
0%
1#
1%
#160000
b11 !
b10 !
b11 "
b1 "
b0 "
0A
0@
0?
0D
1C
0;
07
02
00
0.
1<
08
05
0<
09
03
12
10
0/
13
02
01
0$
0%
03
1%
0%
#170000
b1 "
1A
1;
0:
12
11
00
1/
0=
1<
13
02
01
0>
03
1%
0#
0%
#180000
b11 "
b10 "
0A
1@
0;
1:
12
11
10
0/
1.
18
15
04
0<
13
02
01
00
1/
03
12
11
1%
13
0%
1%
#190000
b11 "
1A
0:
17
02
01
10
19
03
1$
0%
#200000
b111 "
b101 "
b100 "
0A
0@
1?
07
12
00
0.
08
16
05
09
13
02
10
0/
17
03
12
11
19
0$
1%
13
0%
1$
1%
#210000
b101 "
1A
1:
07
02
01
00
1/
1=
09
03
1>
0$
0%
1#
#220000
b111 "
b110 "
0A
1@
1;
0:
17
10
0/
1.
0=
18
06
15
14
1<
19
12
11
00
1/
0>
07
13
02
01
09
1$
0#
03
1%
0$
0%
#230000
b111 "
1A
1:
17
10
1=
0<
19
12
11
1>
13
1$
1#
1%
#240000
b11 !
b11 "
b1 "
b0 "
0A
0@
0?
1D
0;
07
02
00
0.
0=
08
05
09
03
12
0>
13
0$
0%
0#
1%
#250000
b1 "
1A
1;
0:
17
02
01
10
1<
19
03
1$
0%
#260000
b11 "
b10 "
0A
1@
0;
1:
07
11
00
1.
18
15
04
0<
12
13
1%
#270000
b11 "
1A
0:
17
02
01
10
1=
09
03
1>
0$
0%
1#
#280000
b111 "
b101 "
b100 "
0A
0@
1?
07
12
00
0.
0=
08
16
05
13
02
0>
03
1%
0#
0%
#290000
b101 "
1A
1:
17
10
12
11
13
1%
#300000
b111 "
b110 "
0A
1@
1;
0:
07
01
00
1.
18
06
15
14
1<
19
02
03
1$
0%
#310000
b111 "
1A
1:
17
10
1=
0<
12
11
1>
13
1#
1%
#320000
b111 !
b101 !
b100 !
b11 "
b1 "
b0 "
0A
0@
0?
0D
0C
1B
0;
0:
07
02
0.
1-
1<
16
05
1,
0=
0<
09
03
00
0/
0>
17
01
19
0$
0%
0#
13
1$
1%
#330000
b1 "
1A
1;
07
12
1<
09
03
1>
0$
0%
1#
#340000
b11 "
b10 "
0A
1@
0;
17
02
1.
06
0<
19
13
10
1/
07
0>
11
09
1$
1%
03
0#
0$
0%
#350000
b11 "
1A
1:
01
13
1%
#360000
b111 "
b101 "
b100 "
0A
0@
1?
1;
12
0.
1=
16
15
1<
03
00
0/
1>
17
0>
02
11
19
0%
1#
0#
1$
#370000
b101 "
1A
0;
0:
01
0=
0<
13
1%
#380000
b111 "
b110 "
0A
1@
1;
11
1.
06
1<
03
10
1/
07
1>
12
01
09
0%
1#
0$
#390000
b111 "
1A
1:
17
11
1=
0<
19
13
1$
1%
#400000
b101 !
b11 "
b1 "
b0 "
0A
0@
0?
1D
0;
0:
07
02
0/
0.
0=
16
05
0,
03
01
13
0%
1%
#410000
b1 "
1A
1;
17
12
11
1<
#420000
b11 "
b10 "
0A
1@
0;
07
02
01
1.
06
1=
0<
#430000
b11 "
1A
1:
17
12
11
1/
0.
0=
02
01
0/
12
11
#440000
b111 "
b101 "
b100 "
0A
0@
1?
1;
07
16
15
#450000
b101 "
1A
0;
0:
17
02
01
#460000
b111 "
b110 "
0A
1@
1;
07
12
11
1.
1=
06
0=
1<
#470000
b111 "
1A
1:
17
02
01
1/
0.
1=
0<
12
11
0/
02
01
#480000
b111 !
b110 !
b11 "
b1 "
b0 "
0A
0@
0?
0D
1C
0;
07
1<
16
0<
09
17
19
0$
1$
#490000
b1 "
1A
1;
0:
12
11
00
1/
0=
1<
02
01
#500000
b11 "
b10 "
0A
1@
0;
1:
12
11
10
0/
1.
0<
02
01
00
1/
12
11
#510000
b11 "
1A
0:
02
01
10
0.
00
#520000
b111 "
b101 "
b100 "
0A
0@
1?
10
0/
12
11
#530000
b101 "
1A
1:
02
01
00
1/
1=
#540000
b111 "
b110 "
0A
1@
1;
0:
10
0/
1.
0=
1<
12
11
00
1/
02
01
#550000
b111 "
1A
1:
10
0.
1=
0<
12
11
00
02
01
#560000
b111 !
b11 "
b1 "
b0 "
0A
0@
0?
1D
0;
07
12
11
0=
#570000
b1 "
1A
1;
0:
17
02
01
10
1<
#580000
b11 "
b10 "
0A
1@
0;
1:
07
11
00
1.
0<
03
12
13
0%
1%
#590000
b11 "
1A
0:
17
02
01
10
0.
1=
#600000
b111 "
b101 "
b100 "
0A
0@
1?
07
12
00
0=
03
02
13
0%
1%
#610000
b101 "
1A
1:
17
10
12
11
#620000
b111 "
b110 "
0A
1@
1;
0:
07
01
00
1.
1<
03
02
13
0%
1%
#630000
b111 "
1A
1:
17
10
0.
1=
0<
12
11
#640000
b11 !
b1 !
b0 !
b11 "
b1 "
b0 "
0A
0@
0?
0D
0C
0B
0;
0:
02
00
0/
0-
1<
06
05
1,
0=
0<
03
01
07
0>
09
0%
0#
0$
#650000
b1 "
1A
1;
12
1<
13
1%
#660000
b11 "
b10 "
0A
1@
0;
02
1.
08
16
15
04
0<
03
10
1/
17
11
19
0%
1$
#670000
b11 "
1A
1:
01
1-
13
1%
#680000
b111 "
b101 "
b100 "
0A
0@
1?
1;
12
0.
0-
1=
06
05
14
1<
00
0/
1>
07
02
11
09
1#
03
0$
0%
#690000
b101 "
1A
0;
0:
01
0=
0<
0>
0#
#700000
b111 "
b110 "
0A
1@
1;
11
1.
18
15
1<
10
1/
12
01
13
1%
#710000
b111 "
1A
1:
17
11
1-
1=
0<
19
1>
1$
1#
#720000
b1 !
b11 "
b1 "
b0 "
0A
0@
0?
1D
0;
0:
07
02
0/
0.
0-
0=
05
0,
03
01
0>
0%
0#
#730000
b1 "
1A
1;
17
12
11
1<
13
1%
#740000
b11 "
b10 "
0A
1@
0;
07
02
01
1.
08
16
15
04
1=
0<
09
03
1>
0$
0%
1#
#750000
b11 "
1A
1:
17
12
11
1/
0=
13
02
01
0>
03
1%
0#
0%
#760000
b111 "
b101 "
b100 "
0A
0@
1?
1;
07
12
0/
0.
06
05
14
13
11
1%
#770000
b101 "
1A
0;
0:
17
02
01
19
03
1$
0%
#780000
b111 "
b110 "
0A
1@
1;
07
12
11
1.
1=
18
15
0=
1<
13
1>
0>
1%
1#
0#
#790000
b111 "
1A
1:
17
02
01
1/
1=
0<
03
12
11
1>
13
0%
1#
1%
#800000
b11 !
b10 !
b11 "
b1 "
b0 "
0A
0@
0?
0D
1C
0;
07
02
00
0.
1<
08
05
0<
09
03
12
10
0/
13
02
01
0$
0%
03
1%
0%
#810000
b1 "
1A
1;
0:
12
11
00
1/
0=
1<
13
02
01
0>
03
1%
0#
0%
#820000
b11 "
b10 "
0A
1@
0;
1:
12
11
10
0/
1.
18
15
04
0<
13
02
01
00
1/
03
12
11
1%
13
0%
1%
#830000
b11 "
1A
0:
17
02
01
10
19
03
1$
0%
#840000
b111 "
b101 "
b100 "
0A
0@
1?
07
12
00
0.
08
16
05
09
13
02
10
0/
17
03
12
11
19
0$
1%
13
0%
1$
1%
#850000
b101 "
1A
1:
07
02
01
00
1/
1=
09
03
1>
0$
0%
1#
#860000
b111 "
b110 "
0A
1@
1;
0:
17
10
0/
1.
0=
18
06
15
14
1<
19
12
11
00
1/
0>
07
13
02
01
09
1$
0#
03
1%
0$
0%
#870000
b111 "
1A
1:
17
10
1=
0<
19
12
11
1>
13
1$
1#
1%
#880000
b11 !
b11 "
b1 "
b0 "
0A
0@
0?
1D
0;
07
02
00
0.
0=
08
05
09
03
12
0>
13
0$
0%
0#
1%
#890000
b1 "
1A
1;
0:
17
02
01
10
1<
19
03
1$
0%
#900000
b11 "
b10 "
0A
1@
0;
1:
07
11
00
1.
18
15
04
0<
12
13
1%
#910000
b11 "
1A
0:
17
02
01
10
1=
09
03
1>
0$
0%
1#
#920000
b111 "
b101 "
b100 "
0A
0@
1?
07
12
00
0.
0=
08
16
05
13
02
0>
03
1%
0#
0%
#930000
b101 "
1A
1:
17
10
12
11
13
1%
#940000
b111 "
b110 "
0A
1@
1;
0:
07
01
00
1.
18
06
15
14
1<
19
02
03
1$
0%
#950000
b111 "
1A
1:
17
10
1=
0<
12
11
1>
13
1#
1%
#960000
b111 !
b101 !
b100 !
b11 "
b1 "
b0 "
0A
0@
0?
0D
0C
1B
0;
0:
07
02
0.
1-
1<
16
05
1,
0=
0<
09
03
00
0/
0>
17
01
19
0$
0%
0#
13
1$
1%
#970000
b1 "
1A
1;
07
12
1<
09
03
1>
0$
0%
1#
#980000
b11 "
b10 "
0A
1@
0;
17
02
1.
06
0<
19
13
10
1/
07
0>
11
09
1$
1%
03
0#
0$
0%
#990000
b11 "
1A
1:
01
13
1%
