simulation/qsim/MI-CircuitosDigitais-Problema-2.msim.vcd
$comment
	File created using the following command:
		vcd file MI-CircuitosDigitais-Problema-2.msim.vcd -direction
$end
$date
	Mon Oct 02 21:09:45 2023
$end
$version
	ModelSim Version 10.5b
$end
$timescale
	1ps
$end

$scope module modulo_sel_1_8_demux_vlg_vec_tst $end
$var reg 3 ! mdc [2:0] $end
$var reg 3 " mdl [2:0] $end
$var wire 1 # dmx8_input [2] $end
$var wire 1 $ dmx8_input [1] $end
$var wire 1 % dmx8_input [0] $end

$scope module i1 $end
$var wire 1 & gnd $end
$var wire 1 ' vcc $end
$var wire 1 ( unknown $end
$var tri1 1 ) devclrn $end
$var tri1 1 * devpor $end
$var tri1 1 + devoe $end
$var wire 1 , gate_43|WideOr0~17_combout $end
$var wire 1 - gate_43|WideOr0~11_combout $end
$var wire 1 . gate_43|WideOr0~10_combout $end
$var wire 1 / gate_43|WideOr0~9_combout $end
$var wire 1 0 gate_43|WideOr0~18_combout $end
$var wire 1 1 gate_28|WideOr0~13_combout $end
$var wire 1 2 gate_28|WideOr0~12_combout $end
$var wire 1 3 gate_28|WideOr0~11_combout $end
$var wire 1 4 gate_28|WideOr0~10_combout $end
$var wire 1 5 gate_28|WideOr0~20_combout $end
$var wire 1 6 gate_14|WideOr0~6_combout $end
$var wire 1 7 gate_14|WideOr0~11_combout $end
$var wire 1 8 gate_14|WideOr0~12_combout $end
$var wire 1 9 gate_14|WideOr0~10_combout $end
$var wire 1 : mdl~combout [2] $end
$var wire 1 ; mdl~combout [1] $end
$var wire 1 < mdl~combout [0] $end
$var wire 1 = mdc~combout [2] $end
$var wire 1 > mdc~combout [1] $end
$var wire 1 ? mdc~combout [0] $end
$upscope $end
$upscope $end
$enddefinitions $end
#0
$dumpvars
b0 !
b0 "
0%
0$
0#
0&
1'
x(
1)
1*
1+
0,
0-
0.
0/
00
01
02
03
04
05
06
07
08
09
0<
0;
0:
0?
0>
0=
$end
#10000
b1 "
1<
16
1.
1-
1/
10
1%
#20000
b11 "
b10 "
0<
1;
17
06
0.
0-
1,
13
12
0/
14
00
15
0%
1$
#30000
b11 "
1<
07
1.
0,
1/
10
1%
#40000
b111 "
b101 "
b100 "
0<
0;
1:
17
0.
1-
1,
03
02
18
0/
04
19
00
05
1#
0%
0$
#50000
b101 "
1<
07
11
0-
0,
08
09
0#
#60000
b111 "
b110 "
0<
1;
16
01
1.
1-
12
1/
10
1%
#70000
b111 "
1<
17
14
11
1,
18
15
19
1$
1#
#80000
b1 !
b11 "
b1 "
b0 "
0<
0;
0:
1?
07
06
04
0.
0-
08
13
09
05
0/
14
00
15
0#
0$
0%
1$
#90000
b1 "
1<
16
1.
1-
0,
1/
10
1%
#100000
b11 "
b10 "
0<
1;
17
06
0.
0-
1,
03
02
18
0/
04
19
00
05
1#
0%
0$
#110000
b11 "
1<
07
1.
0,
08
09
0#
#120000
b111 "
b101 "
b100 "
0<
0;
1:
17
0.
1-
12
1/
10
1%
#130000
b101 "
1<
07
14
0-
1,
15
0/
00
1$
0%
#140000
b111 "
b110 "
0<
1;
16
04
1.
1-
0,
13
05
1/
14
10
15
0$
1%
1$
#150000
b111 "
1<
17
1,
18
19
1#
#160000
b11 !
b10 !
b11 "
b1 "
b0 "
0<
0;
0:
0?
1>
0.
0-
0,
03
02
0/
00
04
05
0%
0$
#170000
b1 "
1<
07
1.
1-
08
1/
09
0#
#180000
b11 "
b10 "
0<
1;
0.
0-
1,
12
0/
10
1%
#190000
b11 "
1<
17
14
1.
0,
15
1/
00
1$
0%
#200000
b111 "
b101 "
b100 "
0<
0;
1:
07
04
0.
1-
1,
18
13
02
08
05
0/
10
19
14
09
15
0$
1%
1#
0#
1$
#210000
b101 "
1<
17
04
0-
0,
18
05
00
19
0$
0%
1#
#220000
b111 "
b110 "
0<
1;
07
14
1.
1-
03
12
08
15
1/
04
09
05
1$
0#
0$
#230000
b111 "
1<
17
14
1,
18
15
10
19
1$
1%
1#
#240000
b11 !
b11 "
b1 "
b0 "
0<
0;
0:
1?
04
0.
0-
08
05
0/
09
0$
0#
#250000
b1 "
1<
07
14
1.
1-
0,
15
1/
00
1$
0%
#260000
b11 "
b10 "
0<
1;
04
0.
0-
1,
13
02
05
0/
10
14
15
0$
1%
1$
#270000
b11 "
1<
17
04
1.
0,
18
05
00
19
0$
0%
1#
#280000
b111 "
b101 "
b100 "
0<
0;
1:
07
14
0.
1-
08
03
12
15
1/
09
04
05
1$
0#
0$
#290000
b101 "
1<
17
14
0-
1,
15
0/
10
1$
1%
#300000
b111 "
b110 "
0<
1;
07
04
1.
1-
0,
18
13
08
05
1/
00
19
14
09
15
0$
0%
1#
0#
1$
#310000
b111 "
1<
17
1,
18
10
19
1%
1#
#320000
b111 !
b101 !
b100 !
b11 "
b1 "
b0 "
0<
0;
0:
0?
0>
1=
07
06
01
0.
0,
03
02
08
09
05
0/
04
00
0#
0$
0%
#330000
b1 "
1<
16
19
1#
#340000
b11 "
b10 "
0<
1;
17
06
1,
13
12
09
14
0#
#350000
b11 "
1<
07
1.
0,
1/
10
1%
#360000
b111 "
b101 "
b100 "
0<
0;
1:
17
0.
1,
03
02
18
0/
04
00
0%
#370000
b101 "
1<
07
11
1.
0,
08
15
1/
10
1$
1%
#380000
b111 "
b110 "
0<
1;
16
01
0.
12
19
05
0/
00
1#
0$
0%
#390000
b111 "
1<
17
14
11
1.
1,
18
15
1/
10
1$
1%
#400000
b101 !
b11 "
b1 "
b0 "
0<
0;
0:
1?
07
06
04
0.
08
13
14
#410000
b1 "
1<
16
0,
#420000
b11 "
b10 "
0<
1;
17
06
1,
03
02
18
04
#430000
b11 "
1<
07
1.
0,
08
#440000
b111 "
b101 "
b100 "
0<
0;
1:
17
0.
12
#450000
b101 "
1<
07
14
1.
1,
#460000
b111 "
b110 "
0<
1;
16
04
0.
0,
13
14
#470000
b111 "
1<
17
1.
1,
18
#480000
b111 !
b110 !
b11 "
b1 "
b0 "
0<
0;
0:
0?
1>
0.
0,
03
02
0/
04
#490000
b1 "
1<
07
08
#500000
b11 "
b10 "
0<
1;
1,
12
#510000
b11 "
1<
17
14
1.
0,
1/
#520000
b111 "
b101 "
b100 "
0<
0;
1:
07
04
0.
1,
18
13
02
08
0/
14
#530000
b101 "
1<
17
04
1.
0,
18
1/
#540000
b111 "
b110 "
0<
1;
07
14
0.
03
12
08
0/
04
#550000
b111 "
1<
17
14
1.
1,
18
1/
#560000
b111 !
b11 "
b1 "
b0 "
0<
0;
0:
1?
04
0.
08
#570000
b1 "
1<
07
14
0,
#580000
b11 "
b10 "
0<
1;
04
1,
13
02
14
#590000
b11 "
1<
17
04
1.
0,
18
#600000
b111 "
b101 "
b100 "
0<
0;
1:
07
14
0.
08
03
12
04
#610000
b101 "
1<
17
14
1.
1,
#620000
b111 "
b110 "
0<
1;
07
04
0.
0,
18
13
08
14
#630000
b111 "
1<
17
1.
1,
18
#640000
b11 !
b1 !
b0 !
b11 "
b1 "
b0 "
0<
0;
0:
0?
0>
0=
07
06
01
0.
0-
0,
03
02
08
0/
04
09
00
05
0#
0%
0$
#650000
b1 "
1<
16
1.
1-
1/
10
1%
#660000
b11 "
b10 "
0<
1;
17
06
0.
0-
1,
13
12
0/
14
00
15
0%
1$
#670000
b11 "
1<
07
1.
0,
1/
10
1%
#680000
b111 "
b101 "
b100 "
0<
0;
1:
17
0.
1-
1,
03
02
18
0/
04
19
00
05
1#
0%
0$
#690000
b101 "
1<
07
11
0-
0,
08
09
0#
#700000
b111 "
b110 "
0<
1;
16
01
1.
1-
12
1/
10
1%
#710000
b111 "
1<
17
14
11
1,
18
15
19
1$
1#
#720000
b1 !
b11 "
b1 "
b0 "
0<
0;
0:
1?
07
06
04
0.
0-
08
13
09
05
0/
14
00
15
0#
0$
0%
1$
#730000
b1 "
1<
16
1.
1-
0,
1/
10
1%
#740000
b11 "
b10 "
0<
1;
17
06
0.
0-
1,
03
02
18
0/
04
19
00
05
1#
0%
0$
#750000
b11 "
1<
07
1.
0,
08
09
0#
#760000
b111 "
b101 "
b100 "
0<
0;
1:
17
0.
1-
12
1/
10
1%
#770000
b101 "
1<
07
14
0-
1,
15
0/
00
1$
0%
#780000
b111 "
b110 "
0<
1;
16
04
1.
1-
0,
13
05
1/
14
10
15
0$
1%
1$
#790000
b111 "
1<
17
1,
18
19
1#
#800000
b11 !
b10 !
b11 "
b1 "
b0 "
0<
0;
0:
0?
1>
0.
0-
0,
03
02
0/
00
04
05
0%
0$
#810000
b1 "
1<
07
1.
1-
08
1/
09
0#
#820000
b11 "
b10 "
0<
1;
0.
0-
1,
12
0/
10
1%
#830000
b11 "
1<
17
14
1.
0,
15
1/
00
1$
0%
#840000
b111 "
b101 "
b100 "
0<
0;
1:
07
04
0.
1-
1,
18
13
02
08
05
0/
10
19
14
09
15
0$
1%
1#
0#
1$
#850000
b101 "
1<
17
04
0-
0,
18
05
00
19
0$
0%
1#
#860000
b111 "
b110 "
0<
1;
07
14
1.
1-
03
12
08
15
1/
04
09
05
1$
0#
0$
#870000
b111 "
1<
17
14
1,
18
15
10
19
1$
1%
1#
#880000
b11 !
b11 "
b1 "
b0 "
0<
0;
0:
1?
04
0.
0-
08
05
0/
09
0$
0#
#890000
b1 "
1<
07
14
1.
1-
0,
15
1/
00
1$
0%
#900000
b11 "
b10 "
0<
1;
04
0.
0-
1,
13
02
05
0/
10
14
15
0$
1%
1$
#910000
b11 "
1<
17
04
1.
0,
18
05
00
19
0$
0%
1#
#920000
b111 "
b101 "
b100 "
0<
0;
1:
07
14
0.
1-
08
03
12
15
1/
09
04
05
1$
0#
0$
#930000
b101 "
1<
17
14
0-
1,
15
0/
10
1$
1%
#940000
b111 "
b110 "
0<
1;
07
04
1.
1-
0,
18
13
08
05
1/
00
19
14
09
15
0$
0%
1#
0#
1$
#950000
b111 "
1<
17
1,
18
10
19
1%
1#
#960000
b111 !
b101 !
b100 !
b11 "
b1 "
b0 "
0<
0;
0:
0?
0>
1=
07
06
01
0.
0,
03
02
08
09
05
0/
04
00
0#
0$
0%
#970000
b1 "
1<
16
19
1#
#980000
b11 "
b10 "
0<
1;
17
06
1,
13
12
09
14
0#
#990000
b11 "
1<
07
1.
0,
1/
10
1%
