simulation/qsim/MI-CircuitosDigitais-Problema-2.msim.vcd
$comment
	File created using the following command:
		vcd file MI-CircuitosDigitais-Problema-2.msim.vcd -direction
$end
$date
	Tue Sep 26 17:16:03 2023
$end
$version
	ModelSim Version 10.5b
$end
$timescale
	1ps
$end

$scope module modulo_contador_sync_2_bits_vlg_vec_tst $end
$var reg 1 ! clk $end
$var reg 1 " clr $end
$var wire 1 # q [1] $end
$var wire 1 $ q [0] $end

$scope module i1 $end
$var wire 1 % gnd $end
$var wire 1 & vcc $end
$var wire 1 ' unknown $end
$var tri1 1 ( devclrn $end
$var tri1 1 ) devpor $end
$var tri1 1 * devoe $end
$var wire 1 + clk~combout $end
$var wire 1 , clr~combout $end
$var wire 1 - ff_1|q~regout $end
$var wire 1 . ff_2|q~regout $end
$upscope $end
$upscope $end
$enddefinitions $end
#0
$dumpvars
1!
0"
0$
0#
0%
1&
x'
1(
1)
1*
1+
0,
0-
0.
$end
#10000
0!
0+
1-
1$
#20000
1!
1+
#30000
0!
0+
1.
0-
1#
0$
#40000
1!
1+
#50000
0!
0+
1-
1$
#60000
1!
1+
#70000
0!
0+
0.
0-
0#
0$
#80000
1!
1+
#90000
0!
0+
1-
1$
#100000
1!
1+
#110000
0!
0+
1.
0-
1#
0$
#120000
1!
1+
#130000
0!
0+
1-
1$
#140000
1!
1+
#150000
0!
0+
0.
0-
0#
0$
#160000
1!
1+
#170000
0!
0+
1-
1$
#180000
1!
1+
#190000
0!
0+
1.
0-
1#
0$
#200000
1!
1+
#210000
0!
0+
1-
1$
#220000
1!
1+
#230000
0!
0+
0.
0-
0#
0$
#240000
1!
1+
#250000
0!
0+
1-
1$
#260000
1!
1+
#270000
0!
0+
1.
0-
1#
0$
#280000
1!
1+
#290000
0!
0+
1-
1$
#300000
1!
1+
#310000
0!
0+
0.
0-
0#
0$
#320000
1!
1+
#330000
0!
0+
1-
1$
#340000
1!
1+
#350000
0!
0+
1.
0-
1#
0$
#360000
1!
1+
#370000
0!
0+
1-
1$
#380000
1!
1+
#390000
0!
0+
0.
0-
0#
0$
#400000
1!
1+
#410000
0!
0+
1-
1$
#420000
1!
1+
#430000
0!
0+
1.
0-
1#
0$
#440000
1!
1+
#450000
0!
0+
1-
1$
#460000
1!
1+
#470000
0!
0+
0.
0-
0#
0$
#480000
1!
1+
#490000
0!
0+
1-
1$
#500000
1!
1+
#510000
0!
0+
1.
0-
1#
0$
#520000
1!
1+
#530000
0!
0+
1-
1$
#540000
1!
1+
#550000
0!
0+
0.
0-
0#
0$
#560000
1!
1+
#570000
0!
0+
1-
1$
#580000
1!
1+
#590000
0!
0+
1.
0-
1#
0$
#600000
1!
1+
#610000
0!
0+
1-
1$
#620000
1!
1+
#630000
0!
0+
0.
0-
0#
0$
#640000
1!
1+
#650000
0!
0+
1-
1$
#660000
1!
1+
#670000
0!
0+
1.
0-
1#
0$
#680000
1!
1+
#690000
0!
0+
1-
1$
#700000
1!
1+
#710000
0!
0+
0.
0-
0#
0$
#720000
1!
1+
#730000
0!
0+
1-
1$
#740000
1!
1+
#750000
0!
0+
1.
0-
1#
0$
#760000
1!
1+
#770000
0!
0+
1-
1$
#780000
1!
1+
#790000
0!
0+
0.
0-
0#
0$
#800000
1!
1+
#810000
0!
0+
1-
1$
#820000
1!
1+
#830000
0!
0+
1.
0-
1#
0$
#840000
1!
1+
#850000
0!
0+
1-
1$
#860000
1!
1+
#870000
0!
0+
0.
0-
0#
0$
#880000
1!
1+
#890000
0!
0+
1-
1$
#900000
1!
1+
#910000
0!
0+
1.
0-
1#
0$
#920000
1!
1+
#930000
0!
0+
1-
1$
#940000
1!
1+
#950000
0!
0+
0.
0-
0#
0$
#960000
1!
1+
#970000
0!
0+
1-
1$
#980000
1!
1+
#990000
0!
0+
1.
0-
1#
0$
